<!DOCTYPE svg PUBLIC "-//W3C//DTD SVG 1.1//EN" "http://www.w3.org/Graphics/SVG/1.1/DTD/svg11.dtd">
<!-- Uploaded to: SVG Repo, www.svgrepo.com, Transformed by: SVG Repo Mixer Tools -->
<svg width="64px" height="64px" viewBox="0 0 128 128" xmlns="http://www.w3.org/2000/svg" xmlns:xlink="http://www.w3.org/1999/xlink" aria-hidden="true" role="img" class="iconify iconify--noto" preserveAspectRatio="xMidYMid meet" fill="#000000" stroke="#000000" stroke-width="0.512">

<g id="SVGRepo_bgCarrier" stroke-width="0"/>

<g id="SVGRepo_tracerCarrier" stroke-linecap="round" stroke-linejoin="round" stroke="#CCCCCC" stroke-width="1.536"/>

<g id="SVGRepo_iconCarrier"> <path d="M89.5 117.03c-7.44-7.18-18.13-23.6-18.13-23.6s21.98-20.28 23.45-20.47c1.47-.19 26.35 12.9 26.35 12.9s-4.06 25.45-10.97 29.82c-6.93 4.37-20.7 1.35-20.7 1.35z" fill="#a3a3a3"> </path> <path d="M91.54 80.93s-5.89 6.93-8.37 15.58c-1.73 6.03-1.4 11.57-1.4 11.57L74.22 98l5.57-8.07l11.75-9z" fill="#646464"> </path> <path d="M14.85 23.37C8.81 37.83 8.74 56.38 8.74 56.38l28.88 13.47l26.52 43.19S75.18 97 77.83 90.78L14.85 23.37z" fill="#a3a3a3"> </path> <path d="M95.58 89.09l16.76 22.7s15.85-23.68.66-34.04c-3.42-2.33-17.88-4.84-19.77-4.22l2.35 15.56z" fill="#646464"> </path> <path d="M59.58 113.04l-.14.02c-.14.09-.29.17-.43.26c.17-.08.4-.2.57-.28z" fill="#cfcfcf"> </path> <path d="M112.21 69.72c-3.22-1.94-63.51-35.96-70.69-41.11l-30.43 2.63l-6.87 8.32l2.27 2.6L4 47.95l34.38 19.27c2.01 4.85 13.41 30.59 19 43.72c0 0 9.57-8.34 13.98-14.33l-7.22 16.42l8.77 4.19s1.56-19.59 13.36-31.42c11.63-11.65 19.72-9.6 25.04-3.75c8.44 9.28.02 27.74-9.83 27.01c-7.64-.56-2.59-12-3.04-19.49c-.42-7.03-3.69-9.4-4.6-9.63c-.91-.23-4.34 4.53-5.46 8.93c-5.59 21.92-.99 29.92 7.2 31.48c12.35 2.34 21.93-5.48 26.42-19.08c4.64-14.06 1.13-24.98-9.79-31.55z" fill="#cfcfcf"> </path> <path d="M93.66 86.5s1.9 7.16-.49 16.12c-1.24-2.42-1.21-5.83-.96-8.54c.33-3.64 1.45-7.58 1.45-7.58z" fill="#a3a3a3"> </path> <path d="M97.19 113.04c1.13.27 2.22.54 3.32.58c1.09.06 2.16-.03 3.19-.26c2.05-.51 3.92-1.56 5.58-2.94c1.68-1.35 3.18-2.98 4.59-4.7c1.41-1.73 2.74-3.55 4.07-5.45c-.57 2.25-1.56 4.38-2.78 6.36a21.694 21.694 0 0 1-4.6 5.35c-1.86 1.5-4.13 2.67-6.6 2.92c-1.23.12-2.46-.01-3.61-.32c-1.16-.32-2.21-.88-3.16-1.54z" fill="#a3a3a3"> </path> <path d="M112.64 69.85S97.76 54.91 76.18 41.04c0 0-19.61-26.77-21.85-29.31c-4.3-4.88-13.07-5.16-20.41-3.8C18.79 10.74 9.79 21.9 4.04 30.98l33.84 31.86l18.84 39.76c9.69-7.69 11.85-17.75 25.84-27.41c17.35-11.99 30.08-5.34 30.08-5.34z" fill="#eee"> </path> <path d="M81.15 83.92c1.03-1.39 2.12-2.77 3.35-4.02c1.29-1.18 2.54-2.44 4.05-3.4c1.4-1.11 3.04-1.86 4.64-2.71c.83-.35 1.7-.62 2.56-.94c.42-.17.86-.29 1.31-.38l1.34-.31c.89-.22 1.82-.25 2.74-.33c.91-.11 1.84-.06 2.76 0c1.84.14 3.67.54 5.38 1.2c.43.16.84.38 1.26.57c.41.21.84.36 1.21.64c.77.5 1.54.98 2.22 1.59c1.35 1.19 2.6 2.58 3.19 4.27l-.17.1c-.9-1.44-2.22-2.56-3.62-3.5c-1.39-.97-2.97-1.62-4.57-2.16c-3.24-.98-6.72-1.07-10.03-.41l-1.24.26c-.42.07-.83.18-1.22.33c-.8.27-1.61.53-2.41.81c-1.54.71-3.11 1.37-4.53 2.31c-1.5.81-2.83 1.88-4.21 2.87c-1.35 1.03-2.58 2.22-3.87 3.32l-.14-.11z" fill="#a3a3a3"> </path> <path d="M4.22 39.54l20.2 16.52L5.73 44.04s.38-.9.56-1.4l-2.07-3.1z" fill="#a3a3a3"> </path> <g opacity=".7"> <path d="M45.99 11.18L56.43 24.2c.64-.04 1.24-.06 1.82-.06L47.95 11.3c-.53-.06-1.2-.1-1.96-.12z" fill="#a3a3a3"> </path> <path d="M37.04 12.06l12.15 13.76c.49-.2.98-.38 1.47-.53L38.69 11.73c-.54.1-1.09.21-1.65.33z" fill="#a3a3a3"> </path> </g> <g opacity=".7"> <path d="M62.61 28.84c-.57.01-1.15.03-1.75.07c3.26 4.83 7.8 10.73 12.8 14.77c.69-.11 1.38-.19 2.09-.24c-5.01-3.69-9.7-9.61-13.14-14.6z" fill="#a3a3a3"> </path> <path d="M55.26 29.79c-.49.13-.98.27-1.47.43c2.87 4.42 7.47 11.02 12.24 15.81c.47-.22.95-.43 1.43-.63c-4.64-4.56-9.26-11.11-12.2-15.61z" fill="#a3a3a3"> </path> <path d="M49.02 32.48c-.34.22-.67.44-.99.68c-.07.05-.14.11-.2.16c2.6 3.95 7.5 11.08 12.17 16.29c.39-.28.79-.56 1.2-.84c-4.6-5.11-9.57-12.34-12.18-16.29z" fill="#a3a3a3"> </path> <path d="M42.9 38.07c2.65 3.83 7.62 10.86 11.89 15.92c.34-.33.7-.66 1.06-.99c-3.99-4.75-8.84-11.53-11.95-16.03c-.33.35-.67.72-1 1.1z" fill="#a3a3a3"> </path> <path d="M38.53 43.59c3.05 4.22 7.94 10.89 11.62 15.44c.3-.37.62-.75.95-1.13c-3.11-3.89-7.45-9.7-11.66-15.54c-.32.42-.62.83-.91 1.23z" fill="#a3a3a3"> </path> <path d="M34.52 49.55l11.47 15.22c.19-.31.47-.74.84-1.3L35.35 48.23c-.37.58-.65 1.03-.83 1.32z" fill="#a3a3a3"> </path> </g> <path d="M67.55 52.3l-3.12 2.43L75.99 71.1s2.55-2.48 4.39-3.16L67.55 52.3z" fill="#a3a3a3"> </path> <path d="M44.61 27.94C33.66 36.3 29.43 45.71 29.43 45.71L13.05 30.36s8.59-14.02 18.8-16.76l12.76 14.34z" fill="#c2c2c2"> </path> <path fill="#a3a3a3" d="M8.03 34.8l-1.2 1.54l17.13 13.43z"> </path> <path d="M13.05 30.36l16.38 15.35s2.38-5.29 8.19-11.46l-.06-7.12l-13.61 2.88l.01-5.07l-7.29.49c-2.24 2.78-3.62 4.93-3.62 4.93z" fill="#a3a3a3"> </path> <g opacity=".7"> <path d="M71.78 50.26l14.03 15.46c.67-.26 1.34-.48 1.99-.66L73.83 49.68l-2.05.58z" fill="#a3a3a3"> </path> <path d="M81.24 48.91c-.8-.05-1.71-.05-2.69.01l16.02 14.61s1.63-.53 2.63-.19L81.24 48.91z" fill="#a3a3a3"> </path> <path d="M59.58 59.76l10.46 17.35c.44-.54.88-1.07 1.33-1.59L61 58.33c-.47.46-.95.94-1.42 1.43z" fill="#a3a3a3"> </path> <path d="M54.32 65.38l9.76 19.11c.49-.58.95-1.14 1.36-1.64l-9.71-19.02c-.48.52-.95 1.04-1.41 1.55z" fill="#a3a3a3"> </path> <path d="M48.98 71.52l8.76 20.5c.41-.49.89-1.06 1.41-1.67l-8.76-20.49c-.6.69-1.08 1.26-1.41 1.66z" fill="#a3a3a3"> </path> </g> <path d="M38.19 71.92l-1.48-2.21a.937.937 0 0 1-.16-.65c.22-2.13 2.07-13.19 17.23-23.22c11.47-7.59 19.39-6.98 21.26-6.77c.26.03.5.16.68.35l1.87 2.08c.19.21.05.55-.24.55c-2.59-.01-11.5.45-21.42 7.02c-13.57 8.98-16.72 20.17-17.29 22.77c-.06.21-.33.25-.45.08z" fill="#dea076"> </path> <path d="M77.34 42.05c-2.16.03-4.31.35-6.4.85c-2.09.48-4.15 1.14-6.13 1.96a49.37 49.37 0 0 0-11.13 6.37a45.485 45.485 0 0 0-9.18 8.94c-1.31 1.7-2.48 3.5-3.47 5.41c-1.01 1.9-1.84 3.9-2.35 6c.68-4.3 2.72-8.3 5.23-11.86c2.54-3.56 5.72-6.63 9.2-9.27c3.51-2.58 7.34-4.78 11.44-6.29c4.08-1.49 8.45-2.42 12.79-2.11z" fill="#c17e52"> </path> </g>

</svg>